hw4/dump.vcd
$date
	Wed Mar 18 16:05:41 2026
$end
$version
	Questa Intel Starter FPGA Edition Version 2024.3
$end
$timescale
	1ps
$end

$scope module top_verichip4 $end
$var parameter 2 ! RO $end
$var parameter 2 " W1C $end
$var parameter 2 # RW $end
$var parameter 7 $ VCHIP_VER_ADDR $end
$var parameter 7 % VCHIP_STA_ADDR $end
$var parameter 7 & VCHIP_CMD_ADDR $end
$var parameter 7 ' VCHIP_CON_ADDR $end
$var parameter 7 ( VCHIP_ALU_LEFT_ADDR $end
$var parameter 7 ) VCHIP_ALU_RIGHT_ADDR $end
$var parameter 7 * VCHIP_ALU_OUT_ADDR $end
$var parameter 16 + VCHIP_ALU_VALID $end
$var parameter 16 , VCHIP_ALU_ADD $end
$var parameter 16 - VCHIP_ALU_SUB $end
$var parameter 16 . VCHIP_ALU_MVL $end
$var parameter 16 / VCHIP_ALU_MVR $end
$var parameter 16 0 VCHIP_ALU_SWA $end
$var parameter 16 1 VCHIP_ALU_SHL $end
$var parameter 16 2 VCHIP_ALU_SHR $end
$var reg 1 3 clk $end
$var reg 1 4 rst_b $end
$var reg 1 5 export_disable $end
$var reg 1 6 interrupt_1 $end
$var reg 1 7 interrupt_2 $end
$var reg 1 8 maroon $end
$var reg 1 9 gold $end
$var reg 1 : chip_select $end
$var reg 7 ; address [6:0] $end
$var reg 2 < byte_en [1:0] $end
$var reg 1 = rw_ $end
$var reg 16 > data_in [15:0] $end
$var reg 16 ? data_out [15:0] $end
$var reg 16 @ my_wr_val [15:0] $end
$var reg 16 A my_reg_val [15:0] $end
$var reg 16 B gen_exp_ret [15:0] $end
$var reg 16 C initial_val [15:0] $end
$var reg 16 D scratch [15:0] $end

$scope module verichip $end
$var parameter 4 E VCHIP_ALU_VER $end
$var parameter 4 F VCHIP_MAJ_VER $end
$var parameter 4 G VCHIP_MIN_VER $end
$var parameter 4 H VCHIP_STATE_RESET $end
$var parameter 4 I VCHIP_STATE_NORM $end
$var parameter 4 J VCHIP_STATE_ERR $end
$var parameter 4 K VCHIP_STATE_EXP $end
$var parameter 4 L VCHIP_STATE_LOST $end
$var parameter 7 M VCHIP_ADDR_VER $end
$var parameter 7 N VCHIP_ADDR_STA $end
$var parameter 7 O VCHIP_ADDR_CMD $end
$var parameter 7 P VCHIP_ADDR_CON $end
$var parameter 7 Q VCHIP_ADDR_LFT $end
$var parameter 7 R VCHIP_ADDR_RGT $end
$var parameter 7 S VCHIP_ADDR_ALU $end
$var parameter 4 T VCHIP_CMD_NONE $end
$var parameter 32 U VCHIP_STA_INT2 $end
$var parameter 32 V VCHIP_STA_INT1 $end
$var parameter 32 W VCHIP_CMD_LEFT $end
$var parameter 32 X VCHIP_CMD_VAL $end
$var parameter 32 Y VCHIP_CMD_NON $end
$var parameter 32 Z VCHIP_CMD_ADD $end
$var parameter 32 [ VCHIP_CMD_SUB $end
$var parameter 32 \ VCHIP_CMD_MVL $end
$var parameter 32 ] VCHIP_CMD_MVR $end
$var parameter 32 ^ VCHIP_CMD_SWA $end
$var parameter 32 _ VCHIP_CMD_SHL $end
$var parameter 32 ` VCHIP_CMD_SHR $end
$var parameter 32 a VCHIP_LAST_CMD $end
$var parameter 32 b VCHIP_LAST_EXP_CMD $end
$var wire 1 c clk $end
$var wire 1 d rst_b $end
$var wire 1 e export_disable $end
$var reg 1 f interrupt_1 $end
$var reg 1 g interrupt_2 $end
$var wire 1 h maroon $end
$var wire 1 i gold $end
$var wire 1 j chip_select $end
$var wire 1 k address [6] $end
$var wire 1 l address [5] $end
$var wire 1 m address [4] $end
$var wire 1 n address [3] $end
$var wire 1 o address [2] $end
$var wire 1 p address [1] $end
$var wire 1 q address [0] $end
$var wire 1 r byte_en [1] $end
$var wire 1 s byte_en [0] $end
$var wire 1 t rw_ $end
$var wire 1 u data_in [15] $end
$var wire 1 v data_in [14] $end
$var wire 1 w data_in [13] $end
$var wire 1 x data_in [12] $end
$var wire 1 y data_in [11] $end
$var wire 1 z data_in [10] $end
$var wire 1 { data_in [9] $end
$var wire 1 | data_in [8] $end
$var wire 1 } data_in [7] $end
$var wire 1 ~ data_in [6] $end
$var wire 1 !! data_in [5] $end
$var wire 1 "! data_in [4] $end
$var wire 1 #! data_in [3] $end
$var wire 1 $! data_in [2] $end
$var wire 1 %! data_in [1] $end
$var wire 1 &! data_in [0] $end
$var reg 16 '! data_out [15:0] $end
$var reg 1 (! export_dis $end
$var reg 16 )! version_reg [15:0] $end
$var reg 1 *! int2 $end
$var reg 1 +! int1 $end
$var reg 4 ,! state [3:0] $end
$var reg 16 -! status_reg [15:0] $end
$var reg 4 .! next_state [3:0] $end
$var reg 1 /! valid $end
$var reg 4 0! cmd [3:0] $end
$var reg 16 1! cmd_reg [15:0] $end
$var reg 1 2! bad_exp_cmd $end
$var reg 1 3! bad_cmd $end
$var reg 1 4! int2_en $end
$var reg 1 5! int1_en $end
$var reg 16 6! con_reg [15:0] $end
$var reg 16 7! alu_left [15:0] $end
$var reg 16 8! alu_right [15:0] $end
$var reg 16 9! alu_out [15:0] $end
$var reg 1 :! overflow $end
$var reg 16 ;! alu_result [15:0] $end
$var reg 16 <! next_left [15:0] $end
$var reg 16 =! next_right [15:0] $end
$var reg 1 >! load_left $end
$var reg 1 ?! load_right $end
$var reg 16 @! data_out_tmp [15:0] $end
$upscope $end
$upscope $end

$scope begin std $end
$upscope $end
$enddefinitions $end
#0
$dumpvars
03
04
05
06
07
08
09
0:
b0 ;
b0 <
1=
b0 >
b0 ?
b1111111111111111 @
b0 A
b0 B
b0 C
bx D
0f
0g
b0 '!
0(!
b1000010000 )!
0*!
0+!
b0 ,!
b0 -!
b0 .!
0/!
b0 0!
b0 1!
02!
03!
04!
05!
b0 6!
b0 7!
b0 8!
b0 9!
0:!
b0 ;!
b0 <!
b0 =!
0>!
0?!
b1000010000 @!
b0 !
b1 "
b10 #
b0 $
b100 %
b1000 &
b1100 '
b10000 (
b10100 )
b11000 *
b1000000000000000 +
b1 ,
b10 -
b11 .
b100 /
b101 0
b110 1
b111 2
b10 E
b1 F
b0 G
b0 H
b1 I
b10 J
b1000 K
b1111 L
b0 M
b100 N
b1000 O
b1100 P
b10000 Q
b10100 R
b11000 S
b0 T
b1001 U
b1000 V
b11 W
b1111 X
b0 Y
b1 Z
b10 [
b11 \
b100 ]
b101 ^
b110 _
b111 `
b111 a
b10 b
0&!
0%!
0$!
0#!
0"!
0!!
0~
0}
0|
0{
0z
0y
0x
0w
0v
0u
1t
0s
0r
0q
0p
0o
0n
0m
0l
0k
0j
0i
0h
0e
0d
0c
$end
#5000
13
1c
14
1d
#10000
03
0c
04
0d
#15000
13
1c
b1000010000 B
14
1d
#20000
03
0c
0=
1:
b1111111111111111 >
0t
1&!
1%!
1$!
1#!
1"!
1!!
1~
1}
1|
1{
1z
1y
1x
1w
1v
1u
1j
b1000010000 '!
b1000010000 ?
#25000
13
1c
0:
1=
b0 >
1t
0&!
0%!
0$!
0#!
0"!
0!!
0~
0}
0|
0{
0z
0y
0x
0w
0v
0u
0j
b0 '!
b0 ?
#30000
03
0c
#35000
13
1c
1:
1j
b1000010000 '!
b1000010000 ?
#40000
03
0c
#45000
13
1c
b1010101010101010 @
#50000
03
0c
0=
b1010101010101010 >
0t
1%!
1#!
1!!
1}
1{
1y
1w
1u
#55000
13
1c
0:
1=
b0 >
1t
0%!
0#!
0!!
0}
0{
0y
0w
0u
0j
b0 '!
b0 ?
#60000
03
0c
#65000
13
1c
1:
1j
b1000010000 '!
b1000010000 ?
#70000
03
0c
#75000
13
1c
b101010101010101 @
#80000
03
0c
0=
b101010101010101 >
0t
1&!
1$!
1"!
1~
1|
1z
1x
1v
#85000
13
1c
0:
1=
b0 >
1t
0&!
0$!
0"!
0~
0|
0z
0x
0v
0j
b0 '!
b0 ?
#90000
03
0c
#95000
13
1c
1:
1j
b1000010000 '!
b1000010000 ?
#100000
03
0c
#105000
13
1c
b0 @
#110000
03
0c
0=
0t
#115000
13
1c
0:
1=
1t
0j
b0 '!
b0 ?
#120000
03
0c
#125000
13
1c
1:
1j
b1000010000 '!
b1000010000 ?
#130000
03
0c
#135000
13
1c
b1111111111111111 @
#140000
03
0c
0=
b1 <
b1111111111111111 >
0t
1&!
1%!
1$!
1#!
1"!
1!!
1~
1}
1|
1{
1z
1y
1x
1w
1v
1u
1s
#145000
13
1c
0:
b0 <
1=
b0 >
1t
0&!
0%!
0$!
0#!
0"!
0!!
0~
0}
0|
0{
0z
0y
0x
0w
0v
0u
0s
0j
b0 '!
b0 ?
#150000
03
0c
#155000
13
1c
1:
1j
b1000010000 '!
b1000010000 ?
#160000
03
0c
#165000
13
1c
b1010101010101010 @
#170000
03
0c
0=
b1 <
b1010101010101010 >
0t
1%!
1#!
1!!
1}
1{
1y
1w
1u
1s
#175000
13
1c
0:
b0 <
1=
b0 >
1t
0%!
0#!
0!!
0}
0{
0y
0w
0u
0s
0j
b0 '!
b0 ?
#180000
03
0c
#185000
13
1c
1:
1j
b1000010000 '!
b1000010000 ?
#190000
03
0c
#195000
13
1c
b101010101010101 @
#200000
03
0c
0=
b1 <
b101010101010101 >
0t
1&!
1$!
1"!
1~
1|
1z
1x
1v
1s
#205000
13
1c
0:
b0 <
1=
b0 >
1t
0&!
0$!
0"!
0~
0|
0z
0x
0v
0s
0j
b0 '!
b0 ?
#210000
03
0c
#215000
13
1c
1:
1j
b1000010000 '!
b1000010000 ?
#220000
03
0c
#225000
13
1c
b0 @
#230000
03
0c
0=
b1 <
0t
1s
#235000
13
1c
0:
b0 <
1=
0s
1t
0j
b0 '!
b0 ?
#240000
03
0c
#245000
13
1c
1:
1j
b1000010000 '!
b1000010000 ?
#250000
03
0c
#255000
13
1c
b1111111111111111 @
#260000
03
0c
0=
b10 <
b1111111111111111 >
0t
1&!
1%!
1$!
1#!
1"!
1!!
1~
1}
1|
1{
1z
1y
1x
1w
1v
1u
1r
#265000
13
1c
0:
b0 <
1=
b0 >
1t
0&!
0%!
0$!
0#!
0"!
0!!
0~
0}
0|
0{
0z
0y
0x
0w
0v
0u
0r
0j
b0 '!
b0 ?
#270000
03
0c
#275000
13
1c
1:
1j
b1000010000 '!
b1000010000 ?
#280000
03
0c
#285000
13
1c
b1010101010101010 @
#290000
03
0c
0=
b10 <
b1010101010101010 >
0t
1%!
1#!
1!!
1}
1{
1y
1w
1u
1r
#295000
13
1c
0:
b0 <
1=
b0 >
1t
0%!
0#!
0!!
0}
0{
0y
0w
0u
0r
0j
b0 '!
b0 ?
#300000
03
0c
#305000
13
1c
1:
1j
b1000010000 '!
b1000010000 ?
#310000
03
0c
#315000
13
1c
b101010101010101 @
#320000
03
0c
0=
b10 <
b101010101010101 >
0t
1&!
1$!
1"!
1~
1|
1z
1x
1v
1r
#325000
13
1c
0:
b0 <
1=
b0 >
1t
0&!
0$!
0"!
0~
0|
0z
0x
0v
0r
0j
b0 '!
b0 ?
#330000
03
0c
#335000
13
1c
1:
1j
b1000010000 '!
b1000010000 ?
#340000
03
0c
#345000
13
1c
b0 @
#350000
03
0c
0=
b10 <
0t
1r
#355000
13
1c
0:
b0 <
1=
0r
1t
0j
b0 '!
b0 ?
#360000
03
0c
#365000
13
1c
1:
1j
b1000010000 '!
b1000010000 ?
#370000
03
0c
#375000
13
1c
b1111111111111111 @
#380000
03
0c
0=
b11 <
b1111111111111111 >
0t
1&!
1%!
1$!
1#!
1"!
1!!
1~
1}
1|
1{
1z
1y
1x
1w
1v
1u
1s
1r
#385000
13
1c
0:
b0 <
1=
b0 >
1t
0&!
0%!
0$!
0#!
0"!
0!!
0~
0}
0|
0{
0z
0y
0x
0w
0v
0u
0s
0r
0j
b0 '!
b0 ?
#390000
03
0c
#395000
13
1c
1:
1j
b1000010000 '!
b1000010000 ?
#400000
03
0c
#405000
13
1c
b1010101010101010 @
#410000
03
0c
0=
b11 <
b1010101010101010 >
0t
1%!
1#!
1!!
1}
1{
1y
1w
1u
1s
1r
#415000
13
1c
0:
b0 <
1=
b0 >
1t
0%!
0#!
0!!
0}
0{
0y
0w
0u
0s
0r
0j
b0 '!
b0 ?
#420000
03
0c
#425000
13
1c
1:
1j
b1000010000 '!
b1000010000 ?
#430000
03
0c
#435000
13
1c
b101010101010101 @
#440000
03
0c
0=
b11 <
b101010101010101 >
0t
1&!
1$!
1"!
1~
1|
1z
1x
1v
1s
1r
#445000
13
1c
0:
b0 <
1=
b0 >
1t
0&!
0$!
0"!
0~
0|
0z
0x
0v
0s
0r
0j
b0 '!
b0 ?
#450000
03
0c
#455000
13
1c
1:
1j
b1000010000 '!
b1000010000 ?
#460000
03
0c
#465000
13
1c
b0 @
#470000
03
0c
0=
b11 <
0t
1s
1r
#475000
13
1c
0:
b0 <
1=
0s
0r
1t
0j
b0 '!
b0 ?
#480000
03
0c
#485000
13
1c
1:
1j
b1000010000 '!
b1000010000 ?
#490000
03
0c
#495000
13
1c
b1111111111111111 @
b1000000000 B
b0 B
#500000
03
0c
0=
b100 ;
b1111111111111111 >
0t
1&!
1%!
1$!
1#!
1"!
1!!
1~
1}
1|
1{
1z
1y
1x
1w
1v
1u
1o
b0 @!
b0 '!
b0 ?
#505000
13
1c
0:
b0 ;
1=
b0 >
1t
0&!
0%!
0$!
0#!
0"!
0!!
0~
0}
0|
0{
0z
0y
0x
0w
0v
0u
0j
0o
b1000010000 @!
#510000
03
0c
#515000
13
1c
1:
b100 ;
1j
1o
b0 @!
#520000
03
0c
#525000
13
1c
b1010101010101010 @
#530000
03
0c
0=
b1010101010101010 >
0t
1%!
1#!
1!!
1}
1{
1y
1w
1u
#535000
13
1c
0:
b0 ;
1=
b0 >
1t
0%!
0#!
0!!
0}
0{
0y
0w
0u
0j
0o
b1000010000 @!
#540000
03
0c
#545000
13
1c
1:
b100 ;
1j
1o
b0 @!
#550000
03
0c
#555000
13
1c
b101010101010101 @
#560000
03
0c
0=
b101010101010101 >
0t
1&!
1$!
1"!
1~
1|
1z
1x
1v
#565000
13
1c
0:
b0 ;
1=
b0 >
1t
0&!
0$!
0"!
0~
0|
0z
0x
0v
0j
0o
b1000010000 @!
#570000
03
0c
#575000
13
1c
1:
b100 ;
1j
1o
b0 @!
#580000
03
0c
#585000
13
1c
b0 @
#590000
03
0c
0=
0t
#595000
13
1c
0:
b0 ;
1=
1t
0j
0o
b1000010000 @!
#600000
03
0c
#605000
13
1c
1:
b100 ;
1j
1o
b0 @!
#610000
03
0c
#615000
13
1c
b1111111111111111 @
#620000
03
0c
0=
b1 <
b1111111111111111 >
0t
1&!
1%!
1$!
1#!
1"!
1!!
1~
1}
1|
1{
1z
1y
1x
1w
1v
1u
1s
#625000
13
1c
0:
b0 ;
b0 <
1=
b0 >
1t
0&!
0%!
0$!
0#!
0"!
0!!
0~
0}
0|
0{
0z
0y
0x
0w
0v
0u
0s
0j
0o
b1000010000 @!
#630000
03
0c
#635000
13
1c
1:
b100 ;
1j
1o
b0 @!
#640000
03
0c
#645000
13
1c
b1010101010101010 @
#650000
03
0c
0=
b1 <
b1010101010101010 >
0t
1%!
1#!
1!!
1}
1{
1y
1w
1u
1s
#655000
13
1c
0:
b0 ;
b0 <
1=
b0 >
1t
0%!
0#!
0!!
0}
0{
0y
0w
0u
0s
0j
0o
b1000010000 @!
#660000
03
0c
#665000
13
1c
1:
b100 ;
1j
1o
b0 @!
#670000
03
0c
#675000
13
1c
b101010101010101 @
#680000
03
0c
0=
b1 <
b101010101010101 >
0t
1&!
1$!
1"!
1~
1|
1z
1x
1v
1s
#685000
13
1c
0:
b0 ;
b0 <
1=
b0 >
1t
0&!
0$!
0"!
0~
0|
0z
0x
0v
0s
0j
0o
b1000010000 @!
#690000
03
0c
#695000
13
1c
1:
b100 ;
1j
1o
b0 @!
#700000
03
0c
#705000
13
1c
b0 @
#710000
03
0c
0=
b1 <
0t
1s
#715000
13
1c
0:
b0 ;
b0 <
1=
0s
1t
0j
0o
b1000010000 @!
#720000
03
0c
#725000
13
1c
1:
b100 ;
1j
1o
b0 @!
#730000
03
0c
#735000
13
1c
b1111111111111111 @
#740000
03
0c
0=
b10 <
b1111111111111111 >
0t
1&!
1%!
1$!
1#!
1"!
1!!
1~
1}
1|
1{
1z
1y
1x
1w
1v
1u
1r
#745000
13
1c
0:
b0 ;
b0 <
1=
b0 >
1t
0&!
0%!
0$!
0#!
0"!
0!!
0~
0}
0|
0{
0z
0y
0x
0w
0v
0u
0r
0j
0o
b1000010000 @!
#750000
03
0c
#755000
13
1c
1:
b100 ;
1j
1o
b0 @!
#760000
03
0c
#765000
13
1c
b1010101010101010 @
#770000
03
0c
0=
b10 <
b1010101010101010 >
0t
1%!
1#!
1!!
1}
1{
1y
1w
1u
1r
#775000
13
1c
0:
b0 ;
b0 <
1=
b0 >
1t
0%!
0#!
0!!
0}
0{
0y
0w
0u
0r
0j
0o
b1000010000 @!
#780000
03
0c
#785000
13
1c
1:
b100 ;
1j
1o
b0 @!
#790000
03
0c
#795000
13
1c
b101010101010101 @
#800000
03
0c
0=
b10 <
b101010101010101 >
0t
1&!
1$!
1"!
1~
1|
1z
1x
1v
1r
#805000
13
1c
0:
b0 ;
b0 <
1=
b0 >
1t
0&!
0$!
0"!
0~
0|
0z
0x
0v
0r
0j
0o
b1000010000 @!
#810000
03
0c
#815000
13
1c
1:
b100 ;
1j
1o
b0 @!
#820000
03
0c
#825000
13
1c
b0 @
#830000
03
0c
0=
b10 <
0t
1r
#835000
13
1c
0:
b0 ;
b0 <
1=
0r
1t
0j
0o
b1000010000 @!
#840000
03
0c
#845000
13
1c
1:
b100 ;
1j
1o
b0 @!
#850000
03
0c
#855000
13
1c
b1111111111111111 @
#860000
03
0c
0=
b11 <
b1111111111111111 >
0t
1&!
1%!
1$!
1#!
1"!
1!!
1~
1}
1|
1{
1z
1y
1x
1w
1v
1u
1s
1r
#865000
13
1c
0:
b0 ;
b0 <
1=
b0 >
1t
0&!
0%!
0$!
0#!
0"!
0!!
0~
0}
0|
0{
0z
0y
0x
0w
0v
0u
0s
0r
0j
0o
b1000010000 @!
#870000
03
0c
#875000
13
1c
1:
b100 ;
1j
1o
b0 @!
#880000
03
0c
#885000
13
1c
b1010101010101010 @
#890000
03
0c
0=
b11 <
b1010101010101010 >
0t
1%!
1#!
1!!
1}
1{
1y
1w
1u
1s
1r
#895000
13
1c
0:
b0 ;
b0 <
1=
b0 >
1t
0%!
0#!
0!!
0}
0{
0y
0w
0u
0s
0r
0j
0o
b1000010000 @!
#900000
03
0c
#905000
13
1c
1:
b100 ;
1j
1o
b0 @!
#910000
03
0c
#915000
13
1c
b101010101010101 @
#920000
03
0c
0=
b11 <
b101010101010101 >
0t
1&!
1$!
1"!
1~
1|
1z
1x
1v
1s
1r
#925000
13
1c
0:
b0 ;
b0 <
1=
b0 >
1t
0&!
0$!
0"!
0~
0|
0z
0x
0v
0s
0r
0j
0o
b1000010000 @!
#930000
03
0c
#935000
13
1c
1:
b100 ;
1j
1o
b0 @!
#940000
03
0c
#945000
13
1c
b0 @
#950000
03
0c
0=
b11 <
0t
1s
1r
#955000
13
1c
0:
b0 ;
b0 <
1=
0s
0r
1t
0j
0o
b1000010000 @!
#960000
03
0c
#965000
13
1c
1:
b100 ;
1j
1o
b0 @!
#970000
03
0c
#975000
13
1c
b1111111111111111 @
#980000
03
0c
0=
b1000 ;
b1111111111111111 >
0t
1&!
1%!
1$!
1#!
1"!
1!!
1~
1}
1|
1{
1z
1y
1x
1w
1v
1u
0o
1n
#985000
13
1c
0:
b0 ;
1=
b0 >
1t
0&!
0%!
0$!
0#!
0"!
0!!
0~
0}
0|
0{
0z
0y
0x
0w
0v
0u
0j
0n
b1000010000 @!
#990000
03
0c
#995000
13
1c
1:
b1000 ;
1j
1n
b0 @!
#1000000
03
0c
#1005000
13
1c
b1010101010101010 @
#1010000
03
0c
0=
b1010101010101010 >
0t
1%!
1#!
1!!
1}
1{
1y
1w
1u
#1015000
13
1c
0:
b0 ;
1=
b0 >
1t
0%!
0#!
0!!
0}
0{
0y
0w
0u
0j
0n
b1000010000 @!
#1020000
03
0c
#1025000
13
1c
1:
b1000 ;
1j
1n
b0 @!
#1030000
03
0c
#1035000
13
1c
b101010101010101 @
#1040000
03
0c
0=
b101010101010101 >
0t
1&!
1$!
1"!
1~
1|
1z
1x
1v
#1045000
13
1c
0:
b0 ;
1=
b0 >
1t
0&!
0$!
0"!
0~
0|
0z
0x
0v
0j
0n
b1000010000 @!
#1050000
03
0c
#1055000
13
1c
1:
b1000 ;
1j
1n
b0 @!
#1060000
03
0c
#1065000
13
1c
b0 @
#1070000
03
0c
0=
0t
#1075000
13
1c
0:
b0 ;
1=
1t
0j
0n
b1000010000 @!
#1080000
03
0c
#1085000
13
1c
1:
b1000 ;
1j
1n
b0 @!
#1090000
03
0c
#1095000
13
1c
b1111111111111111 @
b1 B
b11 B
b111 B
b1111 B
#1100000
03
0c
0=
b1 <
b1111111111111111 >
0t
1&!
1%!
1$!
1#!
1"!
1!!
1~
1}
1|
1{
1z
1y
1x
1w
1v
1u
1s
#1105000
13
1c
b1111 0!
0:
b0 ;
b0 <
1=
b0 >
b1111 1!
1t
0&!
0%!
0$!
0#!
0"!
0!!
0~
0}
0|
0{
0z
0y
0x
0w
0v
0u
0s
0j
0n
b1000010000 @!
#1110000
03
0c
#1115000
13
1c
1:
b1000 ;
1j
1n
b1111 @!
b1111 '!
b1111 ?
#1120000
03
0c
#1125000
13
1c
b1010101010101010 @
b1110 B
b1010 B
#1130000
03
0c
0=
b1 <
b1010101010101010 >
0t
1%!
1#!
1!!
1}
1{
1y
1w
1u
1s
#1135000
13
1c
b1010 0!
0:
b0 ;
b0 <
1=
b0 >
b1010 1!
1t
0%!
0#!
0!!
0}
0{
0y
0w
0u
0s
0j
0n
b0 '!
b1000010000 @!
b0 ?
#1140000
03
0c
#1145000
13
1c
1:
b1000 ;
1j
1n
b1010 @!
b1010 '!
b1010 ?
#1150000
03
0c
#1155000
13
1c
b101010101010101 @
b1011 B
b1001 B
b1101 B
b101 B
#1160000
03
0c
0=
b1 <
b101010101010101 >
0t
1&!
1$!
1"!
1~
1|
1z
1x
1v
1s
#1165000
13
1c
b101 0!
0:
b0 ;
b0 <
1=
b0 >
b101 1!
1t
0&!
0$!
0"!
0~
0|
0z
0x
0v
0s
0j
0n
b0 '!
b1000010000 @!
b0 ?
#1170000
03
0c
#1175000
13
1c
1:
b1000 ;
1j
1n
b101 @!
b101 '!
b101 ?
#1180000
03
0c
#1185000
13
1c
b0 @
b100 B
b0 B
#1190000
03
0c
0=
b1 <
0t
1s
#1195000
13
1c
b0 0!
0:
b0 ;
b0 <
1=
b0 1!
0s
1t
0j
0n
b0 '!
b1000010000 @!
b0 ?
#1200000
03
0c
#1205000
13
1c
1:
b1000 ;
1j
1n
b0 @!
#1210000
03
0c
#1215000
13
1c
b1111111111111111 @
#1220000
03
0c
0=
b10 <
b1111111111111111 >
0t
1&!
1%!
1$!
1#!
1"!
1!!
1~
1}
1|
1{
1z
1y
1x
1w
1v
1u
1r
#1225000
13
1c
1/!
0:
b0 ;
b0 <
1=
b0 >
b1000000000000000 1!
1t
0&!
0%!
0$!
0#!
0"!
0!!
0~
0}
0|
0{
0z
0y
0x
0w
0v
0u
0r
0j
0n
b1000010000 @!
#1230000
03
0c
#1235000
13
1c
0/!
1:
b1000 ;
b0 1!
1j
1n
b1000010000 '!
b0 @!
b1000010000 ?
b0 '!
b0 ?
#1240000
03
0c
#1245000
13
1c
b1010101010101010 @
#1250000
03
0c
0=
b10 <
b1010101010101010 >
0t
1%!
1#!
1!!
1}
1{
1y
1w
1u
1r
#1255000
13
1c
1/!
0:
b0 ;
b0 <
1=
b0 >
b1000000000000000 1!
1t
0%!
0#!
0!!
0}
0{
0y
0w
0u
0r
0j
0n
b1000010000 @!
#1260000
03
0c
#1265000
13
1c
0/!
1:
b1000 ;
b0 1!
1j
1n
b1000010000 '!
b0 @!
b1000010000 ?
b0 '!
b0 ?
#1270000
03
0c
#1275000
13
1c
b101010101010101 @
#1280000
03
0c
0=
b10 <
b101010101010101 >
0t
1&!
1$!
1"!
1~
1|
1z
1x
1v
1r
#1285000
13
1c
0:
b0 ;
b0 <
1=
b0 >
1t
0&!
0$!
0"!
0~
0|
0z
0x
0v
0r
0j
0n
b1000010000 @!
#1290000
03
0c
#1295000
13
1c
1:
b1000 ;
1j
1n
b0 @!
#1300000
03
0c
#1305000
13
1c
b0 @
#1310000
03
0c
0=
b10 <
0t
1r
#1315000
13
1c
0:
b0 ;
b0 <
1=
0r
1t
0j
0n
b1000010000 @!
#1320000
03
0c
#1325000
13
1c
1:
b1000 ;
1j
1n
b0 @!
#1330000
03
0c
#1335000
13
1c
b1111111111111111 @
b1 B
b11 B
b111 B
b1111 B
#1340000
03
0c
0=
b11 <
b1111111111111111 >
0t
1&!
1%!
1$!
1#!
1"!
1!!
1~
1}
1|
1{
1z
1y
1x
1w
1v
1u
1s
1r
#1345000
13
1c
1/!
b1111 0!
0:
b0 ;
b0 <
1=
b0 >
13!
b1000000000001111 1!
1t
0&!
0%!
0$!
0#!
0"!
0!!
0~
0}
0|
0{
0z
0y
0x
0w
0v
0u
0s
0r
0j
0n
b1000010000 @!
#1350000
03
0c
#1355000
13
1c
0/!
1:
b1000 ;
03!
b1111 1!
1j
1n
b1000010000 '!
b1111 @!
b1000010000 ?
b1111 '!
b1111 ?
#1360000
03
0c
#1365000
13
1c
b1010101010101010 @
b1110 B
b1010 B
#1370000
03
0c
0=
b11 <
b1010101010101010 >
0t
1%!
1#!
1!!
1}
1{
1y
1w
1u
1s
1r
#1375000
13
1c
1/!
b1010 0!
0:
b0 ;
b0 <
1=
b0 >
13!
b1000000000001010 1!
1t
0%!
0#!
0!!
0}
0{
0y
0w
0u
0s
0r
0j
0n
b0 '!
b1000010000 @!
b0 ?
#1380000
03
0c
#1385000
13
1c
0/!
1:
b1000 ;
03!
b1010 1!
1j
1n
b1000010000 '!
b1010 @!
b1000010000 ?
b1010 '!
b1010 ?
#1390000
03
0c
#1395000
13
1c
b101010101010101 @
b1011 B
b1001 B
b1101 B
b101 B
#1400000
03
0c
0=
b11 <
b101010101010101 >
0t
1&!
1$!
1"!
1~
1|
1z
1x
1v
1s
1r
#1405000
13
1c
b101 0!
0:
b0 ;
b0 <
1=
b0 >
b101 1!
1t
0&!
0$!
0"!
0~
0|
0z
0x
0v
0s
0r
0j
0n
b0 '!
b1000010000 @!
b0 ?
#1410000
03
0c
#1415000
13
1c
1:
b1000 ;
1j
1n
b101 @!
b101 '!
b101 ?
#1420000
03
0c
#1425000
13
1c
b0 @
b100 B
b0 B
#1430000
03
0c
0=
b11 <
0t
1s
1r
#1435000
13
1c
b0 0!
0:
b0 ;
b0 <
1=
b0 1!
0s
0r
1t
0j
0n
b0 '!
b1000010000 @!
b0 ?
#1440000
03
0c
#1445000
13
1c
1:
b1000 ;
1j
1n
b0 @!
#1450000
03
0c
#1455000
13
1c
b1111111111111111 @
#1460000
03
0c
0=
b1100 ;
b1111111111111111 >
0t
1&!
1%!
1$!
1#!
1"!
1!!
1~
1}
1|
1{
1z
1y
1x
1w
1v
1u
1o
#1465000
13
1c
0:
b0 ;
1=
b0 >
1t
0&!
0%!
0$!
0#!
0"!
0!!
0~
0}
0|
0{
0z
0y
0x
0w
0v
0u
0j
0o
0n
b1000010000 @!
#1470000
03
0c
#1475000
13
1c
1:
b1100 ;
1j
1o
1n
b0 @!
#1480000
03
0c
#1485000
13
1c
b1010101010101010 @
#1490000
03
0c
0=
b1010101010101010 >
0t
1%!
1#!
1!!
1}
1{
1y
1w
1u
#1495000
13
1c
0:
b0 ;
1=
b0 >
1t
0%!
0#!
0!!
0}
0{
0y
0w
0u
0j
0o
0n
b1000010000 @!
#1500000
03
0c
#1505000
13
1c
1:
b1100 ;
1j
1o
1n
b0 @!
#1510000
03
0c
#1515000
13
1c
b101010101010101 @
#1520000
03
0c
0=
b101010101010101 >
0t
1&!
1$!
1"!
1~
1|
1z
1x
1v
#1525000
13
1c
0:
b0 ;
1=
b0 >
1t
0&!
0$!
0"!
0~
0|
0z
0x
0v
0j
0o
0n
b1000010000 @!
#1530000
03
0c
#1535000
13
1c
1:
b1100 ;
1j
1o
1n
b0 @!
#1540000
03
0c
#1545000
13
1c
b0 @
#1550000
03
0c
0=
0t
#1555000
13
1c
0:
b0 ;
1=
1t
0j
0o
0n
b1000010000 @!
#1560000
03
0c
#1565000
13
1c
1:
b1100 ;
1j
1o
1n
b0 @!
#1570000
03
0c
#1575000
13
1c
b1111111111111111 @
#1580000
03
0c
0=
b1 <
b1111111111111111 >
0t
1&!
1%!
1$!
1#!
1"!
1!!
1~
1}
1|
1{
1z
1y
1x
1w
1v
1u
1s
#1585000
13
1c
0:
b0 ;
b0 <
1=
b0 >
1t
0&!
0%!
0$!
0#!
0"!
0!!
0~
0}
0|
0{
0z
0y
0x
0w
0v
0u
0s
0j
0o
0n
b1000010000 @!
#1590000
03
0c
#1595000
13
1c
1:
b1100 ;
1j
1o
1n
b0 @!
#1600000
03
0c
#1605000
13
1c
b1010101010101010 @
#1610000
03
0c
0=
b1 <
b1010101010101010 >
0t
1%!
1#!
1!!
1}
1{
1y
1w
1u
1s
#1615000
13
1c
0:
b0 ;
b0 <
1=
b0 >
1t
0%!
0#!
0!!
0}
0{
0y
0w
0u
0s
0j
0o
0n
b1000010000 @!
#1620000
03
0c
#1625000
13
1c
1:
b1100 ;
1j
1o
1n
b0 @!
#1630000
03
0c
#1635000
13
1c
b101010101010101 @
#1640000
03
0c
0=
b1 <
b101010101010101 >
0t
1&!
1$!
1"!
1~
1|
1z
1x
1v
1s
