hw4/dump.vcd
$date
	Tue Mar 17 23:32:23 2026
$end
$version
	Questa Intel Starter FPGA Edition Version 2024.3
$end
$timescale
	1ps
$end

$scope module top_verichip4 $end
$var parameter 2 ! RO $end
$var parameter 2 " W1C $end
$var parameter 2 # RW $end
$var parameter 7 $ VCHIP_VER_ADDR $end
$var parameter 7 % VCHIP_STA_ADDR $end
$var parameter 7 & VCHIP_CMD_ADDR $end
$var parameter 7 ' VCHIP_CON_ADDR $end
$var parameter 7 ( VCHIP_ALU_LEFT_ADDR $end
$var parameter 7 ) VCHIP_ALU_RIGHT_ADDR $end
$var parameter 7 * VCHIP_ALU_OUT_ADDR $end
$var parameter 16 + VCHIP_ALU_VALID $end
$var parameter 16 , VCHIP_ALU_ADD $end
$var parameter 16 - VCHIP_ALU_SUB $end
$var parameter 16 . VCHIP_ALU_MVL $end
$var parameter 16 / VCHIP_ALU_MVR $end
$var parameter 16 0 VCHIP_ALU_SWA $end
$var parameter 16 1 VCHIP_ALU_SHL $end
$var parameter 16 2 VCHIP_ALU_SHR $end
$var reg 1 3 clk $end
$var reg 1 4 rst_b $end
$var reg 1 5 export_disable $end
$var reg 1 6 interrupt_1 $end
$var reg 1 7 interrupt_2 $end
$var reg 1 8 maroon $end
$var reg 1 9 gold $end
$var reg 1 : chip_select $end
$var reg 7 ; address [6:0] $end
$var reg 2 < byte_en [1:0] $end
$var reg 1 = rw_ $end
$var reg 16 > data_in [15:0] $end
$var reg 16 ? data_out [15:0] $end
$var reg 16 @ my_wr_val [15:0] $end
$var reg 16 A my_reg_val [15:0] $end
$var reg 16 B gen_exp_ret [15:0] $end
$var reg 16 C initial_val [15:0] $end

$scope module verichip $end
$var parameter 4 D VCHIP_ALU_VER $end
$var parameter 4 E VCHIP_MAJ_VER $end
$var parameter 4 F VCHIP_MIN_VER $end
$var parameter 4 G VCHIP_STATE_RESET $end
$var parameter 4 H VCHIP_STATE_NORM $end
$var parameter 4 I VCHIP_STATE_ERR $end
$var parameter 4 J VCHIP_STATE_EXP $end
$var parameter 4 K VCHIP_STATE_LOST $end
$var parameter 7 L VCHIP_ADDR_VER $end
$var parameter 7 M VCHIP_ADDR_STA $end
$var parameter 7 N VCHIP_ADDR_CMD $end
$var parameter 7 O VCHIP_ADDR_CON $end
$var parameter 7 P VCHIP_ADDR_LFT $end
$var parameter 7 Q VCHIP_ADDR_RGT $end
$var parameter 7 R VCHIP_ADDR_ALU $end
$var parameter 4 S VCHIP_CMD_NONE $end
$var parameter 32 T VCHIP_STA_INT2 $end
$var parameter 32 U VCHIP_STA_INT1 $end
$var parameter 32 V VCHIP_CMD_LEFT $end
$var parameter 32 W VCHIP_CMD_VAL $end
$var parameter 32 X VCHIP_CMD_NON $end
$var parameter 32 Y VCHIP_CMD_ADD $end
$var parameter 32 Z VCHIP_CMD_SUB $end
$var parameter 32 [ VCHIP_CMD_MVL $end
$var parameter 32 \ VCHIP_CMD_MVR $end
$var parameter 32 ] VCHIP_CMD_SWA $end
$var parameter 32 ^ VCHIP_CMD_SHL $end
$var parameter 32 _ VCHIP_CMD_SHR $end
$var parameter 32 ` VCHIP_LAST_CMD $end
$var parameter 32 a VCHIP_LAST_EXP_CMD $end
$var wire 1 b clk $end
$var wire 1 c rst_b $end
$var wire 1 d export_disable $end
$var reg 1 e interrupt_1 $end
$var reg 1 f interrupt_2 $end
$var wire 1 g maroon $end
$var wire 1 h gold $end
$var wire 1 i chip_select $end
$var wire 1 j address [6] $end
$var wire 1 k address [5] $end
$var wire 1 l address [4] $end
$var wire 1 m address [3] $end
$var wire 1 n address [2] $end
$var wire 1 o address [1] $end
$var wire 1 p address [0] $end
$var wire 1 q byte_en [1] $end
$var wire 1 r byte_en [0] $end
$var wire 1 s rw_ $end
$var wire 1 t data_in [15] $end
$var wire 1 u data_in [14] $end
$var wire 1 v data_in [13] $end
$var wire 1 w data_in [12] $end
$var wire 1 x data_in [11] $end
$var wire 1 y data_in [10] $end
$var wire 1 z data_in [9] $end
$var wire 1 { data_in [8] $end
$var wire 1 | data_in [7] $end
$var wire 1 } data_in [6] $end
$var wire 1 ~ data_in [5] $end
$var wire 1 !! data_in [4] $end
$var wire 1 "! data_in [3] $end
$var wire 1 #! data_in [2] $end
$var wire 1 $! data_in [1] $end
$var wire 1 %! data_in [0] $end
$var reg 16 &! data_out [15:0] $end
$var reg 1 '! export_dis $end
$var reg 16 (! version_reg [15:0] $end
$var reg 1 )! int2 $end
$var reg 1 *! int1 $end
$var reg 4 +! state [3:0] $end
$var reg 16 ,! status_reg [15:0] $end
$var reg 4 -! next_state [3:0] $end
$var reg 1 .! valid $end
$var reg 4 /! cmd [3:0] $end
$var reg 16 0! cmd_reg [15:0] $end
$var reg 1 1! bad_exp_cmd $end
$var reg 1 2! bad_cmd $end
$var reg 1 3! int2_en $end
$var reg 1 4! int1_en $end
$var reg 16 5! con_reg [15:0] $end
$var reg 16 6! alu_left [15:0] $end
$var reg 16 7! alu_right [15:0] $end
$var reg 16 8! alu_out [15:0] $end
$var reg 1 9! overflow $end
$var reg 16 :! alu_result [15:0] $end
$var reg 16 ;! next_left [15:0] $end
$var reg 16 <! next_right [15:0] $end
$var reg 1 =! load_left $end
$var reg 1 >! load_right $end
$var reg 16 ?! data_out_tmp [15:0] $end
$upscope $end
$upscope $end

$scope begin std $end
$upscope $end
$enddefinitions $end
#0
$dumpvars
03
04
05
06
07
08
09
0:
b0 ;
b0 <
1=
b0 >
b0 ?
b1111111111111111 @
b0 A
b0 B
b0 C
0e
0f
b0 &!
0'!
b1000010000 (!
0)!
0*!
b0 +!
b0 ,!
b0 -!
0.!
b0 /!
b0 0!
01!
02!
03!
04!
b0 5!
b0 6!
b0 7!
b0 8!
09!
b0 :!
b0 ;!
b0 <!
0=!
0>!
b1000010000 ?!
b0 !
b1 "
b10 #
b0 $
b100 %
b1000 &
b1100 '
b10000 (
b10100 )
b11000 *
b1000000000000000 +
b1 ,
b10 -
b11 .
b100 /
b101 0
b110 1
b111 2
b10 D
b1 E
b0 F
b0 G
b1 H
b10 I
b1000 J
b1111 K
b0 L
b100 M
b1000 N
b1100 O
b10000 P
b10100 Q
b11000 R
b0 S
b1001 T
b1000 U
b11 V
b1111 W
b0 X
b1 Y
b10 Z
b11 [
b100 \
b101 ]
b110 ^
b111 _
b111 `
b10 a
0%!
0$!
0#!
0"!
0!!
0~
0}
0|
0{
0z
0y
0x
0w
0v
0u
0t
1s
0r
0q
0p
0o
0n
0m
0l
0k
0j
0i
0h
0g
0d
0c
0b
$end
#5000
13
1b
14
1c
#10000
03
0b
04
0c
#15000
13
1b
b1000010000 B
14
1c
#20000
03
0b
0=
1:
b1111111111111111 >
0s
1%!
1$!
1#!
1"!
1!!
1~
1}
1|
1{
1z
1y
1x
1w
1v
1u
1t
1i
b1000010000 &!
b1000010000 ?
#25000
13
1b
0:
1=
b0 >
1s
0%!
0$!
0#!
0"!
0!!
0~
0}
0|
0{
0z
0y
0x
0w
0v
0u
0t
0i
b0 &!
b0 ?
#30000
03
0b
#35000
13
1b
1:
1i
b1000010000 &!
b1000010000 ?
#40000
03
0b
#45000
13
1b
b1010101010101010 @
#50000
03
0b
0=
b1010101010101010 >
0s
1$!
1"!
1~
1|
1z
1x
1v
1t
#55000
13
1b
0:
1=
b0 >
1s
0$!
0"!
0~
0|
0z
0x
0v
0t
0i
b0 &!
b0 ?
#60000
03
0b
#65000
13
1b
1:
1i
b1000010000 &!
b1000010000 ?
#70000
03
0b
#75000
13
1b
b101010101010101 @
#80000
03
0b
0=
b101010101010101 >
0s
1%!
1#!
1!!
1}
1{
1y
1w
1u
#85000
13
1b
0:
1=
b0 >
1s
0%!
0#!
0!!
0}
0{
0y
0w
0u
0i
b0 &!
b0 ?
#90000
03
0b
#95000
13
1b
1:
1i
b1000010000 &!
b1000010000 ?
#100000
03
0b
#105000
13
1b
b0 @
#110000
03
0b
0=
0s
#115000
13
1b
0:
1=
1s
0i
b0 &!
b0 ?
#120000
03
0b
#125000
13
1b
1:
1i
b1000010000 &!
b1000010000 ?
#130000
03
0b
#135000
13
1b
b1111111111111111 @
#140000
03
0b
0=
b1 <
b1111111111111111 >
0s
1%!
1$!
1#!
1"!
1!!
1~
1}
1|
1{
1z
1y
1x
1w
1v
1u
1t
1r
#145000
13
1b
0:
b0 <
1=
b0 >
1s
0%!
0$!
0#!
0"!
0!!
0~
0}
0|
0{
0z
0y
0x
0w
0v
0u
0t
0r
0i
b0 &!
b0 ?
#150000
03
0b
#155000
13
1b
1:
1i
b1000010000 &!
b1000010000 ?
#160000
03
0b
#165000
13
1b
b1010101010101010 @
#170000
03
0b
0=
b1 <
b1010101010101010 >
0s
1$!
1"!
1~
1|
1z
1x
1v
1t
1r
#175000
13
1b
0:
b0 <
1=
b0 >
1s
0$!
0"!
0~
0|
0z
0x
0v
0t
0r
0i
b0 &!
b0 ?
#180000
03
0b
#185000
13
1b
1:
1i
b1000010000 &!
b1000010000 ?
#190000
03
0b
#195000
13
1b
b101010101010101 @
#200000
03
0b
0=
b1 <
b101010101010101 >
0s
1%!
1#!
1!!
1}
1{
1y
1w
1u
1r
#205000
13
1b
0:
b0 <
1=
b0 >
1s
0%!
0#!
0!!
0}
0{
0y
0w
0u
0r
0i
b0 &!
b0 ?
#210000
03
0b
#215000
13
1b
1:
1i
b1000010000 &!
b1000010000 ?
#220000
03
0b
#225000
13
1b
b0 @
#230000
03
0b
0=
b1 <
0s
1r
#235000
13
1b
0:
b0 <
1=
0r
1s
0i
b0 &!
b0 ?
#240000
03
0b
#245000
13
1b
1:
1i
b1000010000 &!
b1000010000 ?
#250000
03
0b
#255000
13
1b
b1111111111111111 @
#260000
03
0b
0=
b10 <
b1111111111111111 >
0s
1%!
1$!
1#!
1"!
1!!
1~
1}
1|
1{
1z
1y
1x
1w
1v
1u
1t
1q
#265000
13
1b
0:
b0 <
1=
b0 >
1s
0%!
0$!
0#!
0"!
0!!
0~
0}
0|
0{
0z
0y
0x
0w
0v
0u
0t
0q
0i
b0 &!
b0 ?
#270000
03
0b
#275000
13
1b
1:
1i
b1000010000 &!
b1000010000 ?
#280000
03
0b
#285000
13
1b
b1010101010101010 @
#290000
03
0b
0=
b10 <
b1010101010101010 >
0s
1$!
1"!
1~
1|
1z
1x
1v
1t
1q
#295000
13
1b
0:
b0 <
1=
b0 >
1s
0$!
0"!
0~
0|
0z
0x
0v
0t
0q
0i
b0 &!
b0 ?
#300000
03
0b
#305000
13
1b
1:
1i
b1000010000 &!
b1000010000 ?
#310000
03
0b
#315000
13
1b
b101010101010101 @
#320000
03
0b
0=
b10 <
b101010101010101 >
0s
1%!
1#!
1!!
1}
1{
1y
1w
1u
1q
#325000
13
1b
0:
b0 <
1=
b0 >
1s
0%!
0#!
0!!
0}
0{
0y
0w
0u
0q
0i
b0 &!
b0 ?
#330000
03
0b
#335000
13
1b
1:
1i
b1000010000 &!
b1000010000 ?
#340000
03
0b
#345000
13
1b
b0 @
#350000
03
0b
0=
b10 <
0s
1q
#355000
13
1b
0:
b0 <
1=
0q
1s
0i
b0 &!
b0 ?
#360000
03
0b
#365000
13
1b
1:
1i
b1000010000 &!
b1000010000 ?
#370000
03
0b
#375000
13
1b
b1111111111111111 @
#380000
03
0b
0=
b11 <
b1111111111111111 >
0s
1%!
1$!
1#!
1"!
1!!
1~
1}
1|
1{
1z
1y
1x
1w
1v
1u
1t
1r
1q
#385000
13
1b
0:
b0 <
1=
b0 >
1s
0%!
0$!
0#!
0"!
0!!
0~
0}
0|
0{
0z
0y
0x
0w
0v
0u
0t
0r
0q
0i
b0 &!
b0 ?
#390000
03
0b
#395000
13
1b
1:
1i
b1000010000 &!
b1000010000 ?
#400000
03
0b
#405000
13
1b
b1010101010101010 @
#410000
03
0b
0=
b11 <
b1010101010101010 >
0s
1$!
1"!
1~
1|
1z
1x
1v
1t
1r
1q
#415000
13
1b
0:
b0 <
1=
b0 >
1s
0$!
0"!
0~
0|
0z
0x
0v
0t
0r
0q
0i
b0 &!
b0 ?
#420000
03
0b
#425000
13
1b
1:
1i
b1000010000 &!
b1000010000 ?
#430000
03
0b
#435000
13
1b
b101010101010101 @
#440000
03
0b
0=
b11 <
b101010101010101 >
0s
1%!
1#!
1!!
1}
1{
1y
1w
1u
1r
1q
#445000
13
1b
0:
b0 <
1=
b0 >
1s
0%!
0#!
0!!
0}
0{
0y
0w
0u
0r
0q
0i
b0 &!
b0 ?
#450000
03
0b
#455000
13
1b
1:
1i
b1000010000 &!
b1000010000 ?
#460000
03
0b
#465000
13
1b
b0 @
#470000
03
0b
0=
b11 <
0s
1r
1q
#475000
13
1b
0:
b0 <
1=
0r
0q
1s
0i
b0 &!
b0 ?
#480000
03
0b
#485000
13
1b
1:
1i
b1000010000 &!
b1000010000 ?
#490000
03
0b
#495000
13
1b
b1111111111111111 @
b1000000000 B
b0 B
#500000
03
0b
0=
b100 ;
b1111111111111111 >
0s
1%!
1$!
1#!
1"!
1!!
1~
1}
1|
1{
1z
1y
1x
1w
1v
1u
1t
1n
b0 ?!
b0 &!
b0 ?
#505000
13
1b
0:
b0 ;
1=
b0 >
1s
0%!
0$!
0#!
0"!
0!!
0~
0}
0|
0{
0z
0y
0x
0w
0v
0u
0t
0i
0n
b1000010000 ?!
#510000
03
0b
#515000
13
1b
1:
b100 ;
1i
1n
b0 ?!
#520000
03
0b
#525000
13
1b
b1010101010101010 @
#530000
03
0b
0=
b1010101010101010 >
0s
1$!
1"!
1~
1|
1z
1x
1v
1t
#535000
13
1b
0:
b0 ;
1=
b0 >
1s
0$!
0"!
0~
0|
0z
0x
0v
0t
0i
0n
b1000010000 ?!
#540000
03
0b
#545000
13
1b
1:
b100 ;
1i
1n
b0 ?!
#550000
03
0b
#555000
13
1b
b101010101010101 @
#560000
03
0b
0=
b101010101010101 >
0s
1%!
1#!
1!!
1}
1{
1y
1w
1u
#565000
13
1b
0:
b0 ;
1=
b0 >
1s
0%!
0#!
0!!
0}
0{
0y
0w
0u
0i
0n
b1000010000 ?!
#570000
03
0b
#575000
13
1b
1:
b100 ;
1i
1n
b0 ?!
#580000
03
0b
#585000
13
1b
b0 @
#590000
03
0b
0=
0s
#595000
13
1b
0:
b0 ;
1=
1s
0i
0n
b1000010000 ?!
#600000
03
0b
#605000
13
1b
1:
b100 ;
1i
1n
b0 ?!
#610000
03
0b
#615000
13
1b
b1111111111111111 @
#620000
03
0b
0=
b1 <
b1111111111111111 >
0s
1%!
1$!
1#!
1"!
1!!
1~
1}
1|
1{
1z
1y
1x
1w
1v
1u
1t
1r
#625000
13
1b
0:
b0 ;
b0 <
1=
b0 >
1s
0%!
0$!
0#!
0"!
0!!
0~
0}
0|
0{
0z
0y
0x
0w
0v
0u
0t
0r
0i
0n
b1000010000 ?!
#630000
03
0b
#635000
13
1b
1:
b100 ;
1i
1n
b0 ?!
#640000
03
0b
#645000
13
1b
b1010101010101010 @
#650000
03
0b
0=
b1 <
b1010101010101010 >
0s
1$!
1"!
1~
1|
1z
1x
1v
1t
1r
#655000
13
1b
0:
b0 ;
b0 <
1=
b0 >
1s
0$!
0"!
0~
0|
0z
0x
0v
0t
0r
0i
0n
b1000010000 ?!
#660000
03
0b
#665000
13
1b
1:
b100 ;
1i
1n
b0 ?!
#670000
03
0b
#675000
13
1b
b101010101010101 @
#680000
03
0b
0=
b1 <
b101010101010101 >
0s
1%!
1#!
1!!
1}
1{
1y
1w
1u
1r
#685000
13
1b
0:
b0 ;
b0 <
1=
b0 >
1s
0%!
0#!
0!!
0}
0{
0y
0w
0u
0r
0i
0n
b1000010000 ?!
#690000
03
0b
#695000
13
1b
1:
b100 ;
1i
1n
b0 ?!
#700000
03
0b
#705000
13
1b
b0 @
#710000
03
0b
0=
b1 <
0s
1r
#715000
13
1b
0:
b0 ;
b0 <
1=
0r
1s
0i
0n
b1000010000 ?!
#720000
03
0b
#725000
13
1b
1:
b100 ;
1i
1n
b0 ?!
#730000
03
0b
#735000
13
1b
b1111111111111111 @
#740000
03
0b
0=
b10 <
b1111111111111111 >
0s
1%!
1$!
1#!
1"!
1!!
1~
1}
1|
1{
1z
1y
1x
1w
1v
1u
1t
1q
#745000
13
1b
0:
b0 ;
b0 <
1=
b0 >
1s
0%!
0$!
0#!
0"!
0!!
0~
0}
0|
0{
0z
0y
0x
0w
0v
0u
0t
0q
0i
0n
b1000010000 ?!
#750000
03
0b
#755000
13
1b
1:
b100 ;
1i
1n
b0 ?!
#760000
03
0b
#765000
13
1b
b1010101010101010 @
#770000
03
0b
0=
b10 <
b1010101010101010 >
0s
1$!
1"!
1~
1|
1z
1x
1v
1t
1q
#775000
13
1b
0:
b0 ;
b0 <
1=
b0 >
1s
0$!
0"!
0~
0|
0z
0x
0v
0t
0q
0i
0n
b1000010000 ?!
#780000
03
0b
#785000
13
1b
1:
b100 ;
1i
1n
b0 ?!
#790000
03
0b
#795000
13
1b
b101010101010101 @
#800000
03
0b
0=
b10 <
b101010101010101 >
0s
1%!
1#!
1!!
1}
1{
1y
1w
1u
1q
#805000
13
1b
0:
b0 ;
b0 <
1=
b0 >
1s
0%!
0#!
0!!
0}
0{
0y
0w
0u
0q
0i
0n
b1000010000 ?!
#810000
03
0b
#815000
13
1b
1:
b100 ;
1i
1n
b0 ?!
#820000
03
0b
#825000
13
1b
b0 @
#830000
03
0b
0=
b10 <
0s
1q
#835000
13
1b
0:
b0 ;
b0 <
1=
0q
1s
0i
0n
b1000010000 ?!
#840000
03
0b
#845000
13
1b
1:
b100 ;
1i
1n
b0 ?!
#850000
03
0b
#855000
13
1b
b1111111111111111 @
#860000
03
0b
0=
b11 <
b1111111111111111 >
0s
1%!
1$!
1#!
1"!
1!!
1~
1}
1|
1{
1z
1y
1x
1w
1v
1u
1t
1r
1q
#865000
13
1b
0:
b0 ;
b0 <
1=
b0 >
1s
0%!
0$!
0#!
0"!
0!!
0~
0}
0|
0{
0z
0y
0x
0w
0v
0u
0t
0r
0q
0i
0n
b1000010000 ?!
#870000
03
0b
#875000
13
1b
1:
b100 ;
1i
1n
b0 ?!
#880000
03
0b
#885000
13
1b
b1010101010101010 @
#890000
03
0b
0=
b11 <
b1010101010101010 >
0s
1$!
1"!
1~
1|
1z
1x
1v
1t
1r
1q
#895000
13
1b
0:
b0 ;
b0 <
1=
b0 >
1s
0$!
0"!
0~
0|
0z
0x
0v
0t
0r
0q
0i
0n
b1000010000 ?!
#900000
03
0b
#905000
13
1b
1:
b100 ;
1i
1n
b0 ?!
#910000
03
0b
#915000
13
1b
b101010101010101 @
#920000
03
0b
0=
b11 <
b101010101010101 >
0s
1%!
1#!
1!!
1}
1{
1y
1w
1u
1r
1q
#925000
13
1b
0:
b0 ;
b0 <
1=
b0 >
1s
0%!
0#!
0!!
0}
0{
0y
0w
0u
0r
0q
0i
0n
b1000010000 ?!
#930000
03
0b
#935000
13
1b
1:
b100 ;
1i
1n
b0 ?!
#940000
03
0b
#945000
13
1b
b0 @
#950000
03
0b
0=
b11 <
0s
1r
1q
#955000
13
1b
0:
b0 ;
b0 <
1=
0r
0q
1s
0i
0n
b1000010000 ?!
#960000
03
0b
#965000
13
1b
1:
b100 ;
1i
1n
b0 ?!
#970000
03
0b
#975000
13
1b
b1111111111111111 @
#980000
03
0b
0=
b1000 ;
b1111111111111111 >
0s
1%!
1$!
1#!
1"!
1!!
1~
1}
1|
1{
1z
1y
1x
1w
1v
1u
1t
0n
1m
#985000
13
1b
0:
b0 ;
1=
b0 >
1s
0%!
0$!
0#!
0"!
0!!
0~
0}
0|
0{
0z
0y
0x
0w
0v
0u
0t
0i
0m
b1000010000 ?!
#990000
03
0b
#995000
13
1b
1:
b1000 ;
1i
1m
b0 ?!
#1000000
03
0b
#1005000
13
1b
b1010101010101010 @
#1010000
03
0b
0=
b1010101010101010 >
0s
1$!
1"!
1~
1|
1z
1x
1v
1t
#1015000
13
1b
0:
b0 ;
1=
b0 >
1s
0$!
0"!
0~
0|
0z
0x
0v
0t
0i
0m
b1000010000 ?!
#1020000
03
0b
#1025000
13
1b
1:
b1000 ;
1i
1m
b0 ?!
#1030000
03
0b
#1035000
13
1b
b101010101010101 @
#1040000
03
0b
0=
b101010101010101 >
0s
1%!
1#!
1!!
1}
1{
1y
1w
1u
#1045000
13
1b
0:
b0 ;
1=
b0 >
1s
0%!
0#!
0!!
0}
0{
0y
0w
0u
0i
0m
b1000010000 ?!
#1050000
03
0b
#1055000
13
1b
1:
b1000 ;
1i
1m
b0 ?!
#1060000
03
0b
#1065000
13
1b
b0 @
#1070000
03
0b
0=
0s
#1075000
13
1b
0:
b0 ;
1=
1s
0i
0m
b1000010000 ?!
#1080000
03
0b
#1085000
13
1b
1:
b1000 ;
1i
1m
b0 ?!
#1090000
03
0b
#1095000
13
1b
b1111111111111111 @
b1 B
b11 B
b111 B
b1111 B
#1100000
03
0b
0=
b1 <
b1111111111111111 >
0s
1%!
1$!
1#!
1"!
1!!
1~
1}
1|
1{
1z
1y
1x
1w
1v
1u
1t
1r
#1105000
13
1b
b1111 /!
0:
b0 ;
b0 <
1=
b0 >
b1111 0!
1s
0%!
0$!
0#!
0"!
0!!
0~
0}
0|
0{
0z
0y
0x
0w
0v
0u
0t
0r
0i
0m
b1000010000 ?!
#1110000
03
0b
#1115000
13
1b
1:
b1000 ;
1i
1m
b1111 ?!
b1111 &!
b1111 ?
#1120000
03
0b
#1125000
13
1b
b1010101010101010 @
b1110 B
b1010 B
#1130000
03
0b
0=
b1 <
b1010101010101010 >
0s
1$!
1"!
1~
1|
1z
1x
1v
1t
1r
#1135000
13
1b
b1010 /!
0:
b0 ;
b0 <
1=
b0 >
b1010 0!
1s
0$!
0"!
0~
0|
0z
0x
0v
0t
0r
0i
0m
b0 &!
b1000010000 ?!
b0 ?
#1140000
03
0b
#1145000
13
1b
1:
b1000 ;
1i
1m
b1010 ?!
b1010 &!
b1010 ?
#1150000
03
0b
#1155000
13
1b
b101010101010101 @
b1011 B
b1001 B
b1101 B
b101 B
#1160000
03
0b
0=
b1 <
b101010101010101 >
0s
1%!
1#!
1!!
1}
1{
1y
1w
1u
1r
#1165000
13
1b
b101 /!
0:
b0 ;
b0 <
1=
b0 >
b101 0!
1s
0%!
0#!
0!!
0}
0{
0y
0w
0u
0r
0i
0m
b0 &!
b1000010000 ?!
b0 ?
#1170000
03
0b
#1175000
13
1b
1:
b1000 ;
1i
1m
b101 ?!
b101 &!
b101 ?
#1180000
03
0b
#1185000
13
1b
b0 @
b100 B
b0 B
#1190000
03
0b
0=
b1 <
0s
1r
#1195000
13
1b
b0 /!
0:
b0 ;
b0 <
1=
b0 0!
0r
1s
0i
0m
b0 &!
b1000010000 ?!
b0 ?
#1200000
03
0b
#1205000
13
1b
1:
b1000 ;
1i
1m
b0 ?!
#1210000
03
0b
#1215000
13
1b
b1111111111111111 @
#1220000
03
0b
0=
b10 <
b1111111111111111 >
0s
1%!
1$!
1#!
1"!
1!!
1~
1}
1|
1{
1z
1y
1x
1w
1v
1u
1t
1q
#1225000
13
1b
1.!
0:
b0 ;
b0 <
1=
b0 >
b1000000000000000 0!
1s
0%!
0$!
0#!
0"!
0!!
0~
0}
0|
0{
0z
0y
0x
0w
0v
0u
0t
0q
0i
0m
b1000010000 ?!
#1230000
03
0b
#1235000
13
1b
0.!
1:
b1000 ;
b0 0!
1i
1m
b1000010000 &!
b0 ?!
b1000010000 ?
b0 &!
b0 ?
#1240000
03
0b
#1245000
13
1b
b1010101010101010 @
#1250000
03
0b
0=
b10 <
b1010101010101010 >
0s
1$!
1"!
1~
1|
1z
1x
1v
1t
1q
#1255000
13
1b
1.!
0:
b0 ;
b0 <
1=
b0 >
b1000000000000000 0!
1s
0$!
0"!
0~
0|
0z
0x
0v
0t
0q
0i
0m
b1000010000 ?!
#1260000
03
0b
#1265000
13
1b
0.!
1:
b1000 ;
b0 0!
1i
1m
b1000010000 &!
b0 ?!
b1000010000 ?
b0 &!
b0 ?
#1270000
03
0b
#1275000
13
1b
b101010101010101 @
#1280000
03
0b
0=
b10 <
b101010101010101 >
0s
1%!
1#!
1!!
1}
1{
1y
1w
1u
1q
#1285000
13
1b
0:
b0 ;
b0 <
1=
b0 >
1s
0%!
0#!
0!!
0}
0{
0y
0w
0u
0q
0i
0m
b1000010000 ?!
#1290000
03
0b
#1295000
13
1b
1:
b1000 ;
1i
1m
b0 ?!
#1300000
03
0b
#1305000
13
1b
b0 @
#1310000
03
0b
0=
b10 <
0s
1q
#1315000
13
1b
0:
b0 ;
b0 <
1=
0q
1s
0i
0m
b1000010000 ?!
#1320000
03
0b
#1325000
13
1b
1:
b1000 ;
1i
1m
b0 ?!
#1330000
03
0b
#1335000
13
1b
b1111111111111111 @
b1 B
b11 B
b111 B
b1111 B
#1340000
03
0b
0=
b11 <
b1111111111111111 >
0s
1%!
1$!
1#!
1"!
1!!
1~
1}
1|
1{
1z
1y
1x
1w
1v
1u
1t
1r
1q
#1345000
13
1b
1.!
b1111 /!
0:
b0 ;
b0 <
1=
b0 >
12!
b1000000000001111 0!
1s
0%!
0$!
0#!
0"!
0!!
0~
0}
0|
0{
0z
0y
0x
0w
0v
0u
0t
0r
0q
0i
0m
b1000010000 ?!
#1350000
03
0b
#1355000
13
1b
0.!
1:
b1000 ;
02!
b1111 0!
1i
1m
b1000010000 &!
b1111 ?!
b1000010000 ?
b1111 &!
b1111 ?
#1360000
03
0b
#1365000
13
1b
b1010101010101010 @
b1110 B
b1010 B
#1370000
03
0b
0=
b11 <
b1010101010101010 >
0s
1$!
1"!
1~
1|
1z
1x
1v
1t
1r
1q
#1375000
13
1b
1.!
b1010 /!
0:
b0 ;
b0 <
1=
b0 >
12!
b1000000000001010 0!
1s
0$!
0"!
0~
0|
0z
0x
0v
0t
0r
0q
0i
0m
b0 &!
b1000010000 ?!
b0 ?
#1380000
03
0b
#1385000
13
1b
0.!
1:
b1000 ;
02!
b1010 0!
1i
1m
b1000010000 &!
b1010 ?!
b1000010000 ?
b1010 &!
b1010 ?
#1390000
03
0b
#1395000
13
1b
b101010101010101 @
b1011 B
b1001 B
b1101 B
b101 B
#1400000
03
0b
0=
b11 <
b101010101010101 >
0s
1%!
1#!
1!!
1}
1{
1y
1w
1u
1r
1q
#1405000
13
1b
b101 /!
0:
b0 ;
b0 <
1=
b0 >
b101 0!
1s
0%!
0#!
0!!
0}
0{
0y
0w
0u
0r
0q
0i
0m
b0 &!
b1000010000 ?!
b0 ?
#1410000
03
0b
#1415000
13
1b
1:
b1000 ;
1i
1m
b101 ?!
b101 &!
b101 ?
#1420000
03
0b
#1425000
13
1b
b0 @
b100 B
b0 B
#1430000
03
0b
0=
b11 <
0s
1r
1q
#1435000
13
1b
b0 /!
0:
b0 ;
b0 <
1=
b0 0!
0r
0q
1s
0i
0m
b0 &!
b1000010000 ?!
b0 ?
#1440000
03
0b
#1445000
13
1b
1:
b1000 ;
1i
1m
b0 ?!
#1450000
03
0b
#1455000
13
1b
b1111111111111111 @
#1460000
03
0b
0=
b1100 ;
b1111111111111111 >
0s
1%!
1$!
1#!
1"!
1!!
1~
1}
1|
1{
1z
1y
1x
1w
1v
1u
1t
1n
#1465000
13
1b
0:
b0 ;
1=
b0 >
1s
0%!
0$!
0#!
0"!
0!!
0~
0}
0|
0{
0z
0y
0x
0w
0v
0u
0t
0i
0n
0m
b1000010000 ?!
#1470000
03
0b
#1475000
13
1b
1:
b1100 ;
1i
1n
1m
b0 ?!
#1480000
03
0b
#1485000
13
1b
b1010101010101010 @
#1490000
03
0b
0=
b1010101010101010 >
0s
1$!
1"!
1~
1|
1z
1x
1v
1t
#1495000
13
1b
0:
b0 ;
1=
b0 >
1s
0$!
0"!
0~
0|
0z
0x
0v
0t
0i
0n
0m
b1000010000 ?!
#1500000
03
0b
#1505000
13
1b
1:
b1100 ;
1i
1n
1m
b0 ?!
#1510000
03
0b
#1515000
13
1b
b101010101010101 @
#1520000
03
0b
0=
b101010101010101 >
0s
1%!
1#!
1!!
1}
1{
1y
1w
1u
#1525000
13
1b
0:
b0 ;
1=
b0 >
1s
0%!
0#!
0!!
0}
0{
0y
0w
0u
0i
0n
0m
b1000010000 ?!
#1530000
03
0b
#1535000
13
1b
1:
b1100 ;
1i
1n
1m
b0 ?!
#1540000
03
0b
#1545000
13
1b
b0 @
#1550000
03
0b
0=
0s
#1555000
13
1b
0:
b0 ;
1=
1s
0i
0n
0m
b1000010000 ?!
#1560000
03
0b
#1565000
13
1b
1:
b1100 ;
1i
1n
1m
b0 ?!
#1570000
03
0b
#1575000
13
1b
b1111111111111111 @
#1580000
03
0b
0=
b1 <
b1111111111111111 >
0s
1%!
1$!
1#!
1"!
1!!
1~
1}
1|
1{
1z
1y
1x
1w
1v
1u
1t
1r
#1585000
13
1b
0:
b0 ;
b0 <
1=
b0 >
1s
0%!
0$!
0#!
0"!
0!!
0~
0}
0|
0{
0z
0y
0x
0w
0v
0u
0t
0r
0i
0n
0m
b1000010000 ?!
#1590000
03
0b
#1595000
13
1b
1:
b1100 ;
1i
1n
1m
b0 ?!
#1600000
03
0b
#1605000
13
1b
b1010101010101010 @
#1610000
03
0b
0=
b1 <
b1010101010101010 >
0s
1$!
1"!
1~
1|
1z
1x
1v
1t
1r
#1615000
13
1b
0:
b0 ;
b0 <
1=
b0 >
1s
0$!
0"!
0~
0|
0z
0x
0v
0t
0r
0i
0n
0m
b1000010000 ?!
#1620000
03
0b
#1625000
13
1b
1:
b1100 ;
1i
1n
1m
b0 ?!
#1630000
03
0b
#1635000
13
1b
b101010101010101 @
#1640000
03
0b
0=
b1 <
b101010101010101 >
0s
1%!
1#!
1!!
1}
1{
1y
1w
1u
1r
